-6
-9
43
0
46
7
1
31
-18
45
10
2
32
-5
36
-11
-16
25
-15
34
-8
-15
12
-25
28
-19
-26
17
-27
11
-26
-33
1
-34
14
-12
-20
10
-29
7
-24
-30
-8
-43
3
-28
-8
-5
-41
22
60
45
-12
-38
-19
-77
-26
3
-26
-10
-36
-14
-7
-33
0
-13
1
-15
-25
4
-20
-23
-7
-25
14
-7
-16
-10
-16
11
12
6
39
47
26
68
31
50
61
29
51
19
12
30
15
32
19
12
5
8
5
4
11
9
26
28
0
12
1
0
-2
2
-8
-3
3
0
-1
5
12
13
-4
-12
4
-5
5
26
31
12
2
6
9
0
-2
12
13
3
8
9
2
5
-7
3
-3
-8
3
-10
1
7
3
12
5
3
18
0
-6
40
43
3
-3
-1
-10
-1
0
-9
4
-30
-9
-32
-44
33
67
31
-52
-83
-29
-71
-16
-15
-81
-11
-39
-17
-35
-47
-12
-35
-3
-1
-46
-2
0
-9
-31
-41
0
-32
-13
-10
-5
16
21
19
57
59
25
53
26
58
62
31
64
32
30
45
33
39
32
23
30
41
46
42
50
45
56
61
40
57
49
57
62
52
54
41
53
54
45
43
50
57
55
52
22
19
55
35
56
36
29
56
20
52
23
5
38
5
47
19
0
42
-7
30
35
-9
34
-13
21
-16
-36
31
-27
19
25
-19
37
-10
29
39
-10
24
-41
7
22
-35
13
-50
-10
3
-44
42
70
110
10
-67
-23
-93
-30
-4
-71
-9
-74
-21
-6
-80
9
-65
-17
0
-81
-9
-81
-35
-5
-70
-17
-85
-22
6
-50
17
-25
15
35
-7
64
15
13
63
34
65
8
44
55
-6
38
-31
-33
22
-22
37
-25
-33
26
-13
33
-17
-21
32
-24
33
-40
-41
30
-30
41
-26
-33
32
-33
18
-46
-52
17
-36
19
-47
0
32
-47
15
-22
-32
12
-38
16
-34
-39
18
-53
13
-54
-67
9
-50
12
-35
-42
6
-64
7
-26
-38
6
-30
12
-33
5
28
-37
26
-41
-59
-2
-70
-1
-50
-60
-8
-68
21
44
71
19
-63
-36
-115
-118
-23
-76
-17
-57
-61
-11
-78
-8
-73
-80
-8
-62
-11
-52
-19
6
-70
-9
-7
-52
6
-32
21
25
-6
49
3
59
83
45
116
-1
-225
141
192
-92
148
-95
105
145
-103
133
-89
88
127
-86
113
-72
87
116
-94
121
-71
75
106
-74
98
-92
60
102
-77
86
-57
45
81
-58
74
-59
45
76
-51
70
-60
33
67
-50
69
-60
20
57
-34
53
-73
27
57
-53
39
-53
22
50
-48
23
-43
29
48
-47
43
-18
37
52
-20
41
-40
25
45
-25
17
-48
4
16
-46
11
-41
28
95
119
127
-72
-93
-49
-82
-3
-57
-26
-5
-31
10
-27
-3
5
-30
-6
-20
-3
1
-25
1
-29
-31
3
0
15
3
43
61
56
64
65
72
76
59
80
76
84
59
35
45
38
19
11
28
23
12
8
11
5
13
24
13
20
25
4
9
20
25
1
23
40
4
15
30
-3
-6
7
-2
7
4
22
3
-4
0
-5
25
8
1
7
-7
34
38
12
19
10
10
-10
-11
6
-7
27
6
3
19
-30
-3
-21
-32
-15
-27
2
-29
-1
7
-36
23
-19
-25
21
-38
-3
-27
-36
-3
-27
-2
-47
-48
12
-6
138
169
58
-45
-106
-38
-37
-61
-9
-49
-7
-47
-52
0
-54
-10
-46
-58
-12
-61
-13
-36
-37
-3
-55
16
-17
-32
5
-5
59
37
72
94
64
135
200
39
16
219
-1
193
4
-51
151
-91
93
-66
-104
89
-87
73
-65
-98
89
-102
69
-63
-111
55
-115
32
-74
-109
37
-102
19
-74
-113
24
-104
8
-83
-107
24
-116
17
-68
-110
-1
-97
16
-54
-90
16
-82
1
-78
-107
-5
-99
-11
-77
-109
11
-97
-31
-27
-83
-12
-97
-20
-11
-75
-9
-77
-17
-14
-98
-34
-86
-36
-33
-94
-26
-90
-47
-42
-113
32
50
94
-1
-102
-71
-131
-83
-54
-77
-26
-88
-37
-21
-71
-22
-50
-25
-60
-81
-21
-69
-33
-11
-66
-16
-12
-48
-11
-23
29
-9
-11
39
24
102
60
53
107
79
102
51
37
80
31
70
42
25
47
7
53
19
2
49
22
56
27
12
47
34
57
15
1
35
-16
13
-3
-15
9
-21
6
7
-28
8
-37
3
5
-34
1
-22
18
-4
-15
21
0
18
-6
-12
14
-27
0
-16
-27
13
-27
-5
9
-3
18
-16
4
10
-17
14
-7
6
12
0
18
3
21
23
-7
-1
-15
2
-10
-20
3
-15
-1
0
-9
9
4
63
104
82
-13
-87
-44
-22
-24
7
-9
-12
6
15
22
0
-9
-8
-15
7
-1
4
-3
-4
19
5
20
5
1
39
41
29
37
50
63
67
46
76
95
69
67
60
52
64
48
53
38
20
9
28
36
28
23
13
15
19
25
7
0
19
24
17
-4
-14
25
11
1
10
0
10
-17
-22
20
-21
-23
3
-9
8
-20
0
-14
-22
5
-18
-8
-28
-30
8
-34
-6
-4
-25
-5
-29
5
-28
-49
-15
-31
-4
-22
-36
-9
-31
-7
2
-13
-11
-41
-12
0
-22
-5
-22
-23
-13
-36
-19
-65
-32
-30
-64
-51
-73
-47
-25
10
68
31
-46
-110
-120
-57
-68
-39
-33
-58
-42
-56
-10
-1
-52
-39
-61
-34
-22
-55
-29
-48
-26
-17
-50
-11
-34
-12
8
-10
31
34
0
74
38
58
69
43
68
39
57
24
6
58
1
0
28
15
36
2
26
6
3
32
-11
10
-7
-10
31
3
29
33
11
39
-16
13
18
-5
15
-13
21
4
-3
35
-6
6
-11
-12
16
-9
12
-8
-13
26
-2
14
2
21
36
2
24
-1
-8
26
-6
15
0
-6
17
-9
26
-6
-13
20
-21
18
24
12
34
-23
17
-18
-40
-13
-15
0
-46
-19
-1
-52
0
-18
57
104
-20
-57
-97
-74
-53
-68
-22
-64
-66
-25
-60
-8
-39
-46
-18
-63
-4
-45
-57
-16
-65
-22
-41
-49
-22
-38
13
-15
-17
41
4
72
91
48
115
78
74
108
61
76
29
78
85
36
58
16
67
16
9
82
24
56
14
7
71
29
59
28
18
56
-1
43
21
10
48
8
55
18
8
40
-7
50
8
0
46
2
53
13
2
50
8
28
-2
-3
33
-5
30
-1
34
52
-14
7
-35
13
42
-20
37
-21
-29
23
0
37
-25
-29
34
-2
53
-4
37
65
-3
36
-27
15
34
-55
-5
-42
-13
-1
-56
85
108
94
36
-86
-60
-108
-35
14
-81
-58
-99
-107
-44
-91
-68
-97
-67
-46
-85
-58
-117
-70
-43
-117
-59
-79
-39
-26
-80
35
-25
-33
33
-1
80
46
40
90
55
90
60
56
40
11
59
7
2
59
-7
53
14
6
45
-13
38
-11
-14
34
-11
36
-1
-6
35
-16
23
-24
7
25
-19
31
-17
15
36
-2
34
-16
24
48
-9
40
7
-2
27
10
44
-4
-7
36
7
38
-8
-13
36
1
28
-17
-22
31
-11
22
-19
-23
19
8
19
-29
7
16
-46
-5
-69
-22
6
-50
-13
-53
-26
-13
-49
35
68
76
-21
-94
-41
-81
-45
-23
-61
-14
-62
-31
-8
-39
-7
-56
-19
-1
-40
-4
-53
-59
-23
-51
-1
-33
-36
0
-40
22
24
0
23
19
48
36
34
54
33
34
19
16
24
-4
5
-2
-6
6
-12
8
-16
-17
7
-7
18
-26
-27
4
-10
21
-5
-6
-18
-31
23
8
-3
0
-17
9
-23
-5
3
-24
8
-5
-9
-3
-22
24
8
1
6
-3
18
0
-2
7
-9
16
-10
-14
0
-35
7
11
-26
-19
-35
0
-19
-25
-2
-25
5
-11
-13
9
-7
-2
-32
-39
-13
-29
-9
-35
-39
0
-28
10
82
101
25
-42
-45
-77
-47
-25
-45
-7
-21
-27
-17
-34
-15
-43
-45
-27
-35
-7
-30
-41
-15
-12
-8
-25
-27
13
15
9
20
31
45
47
39
79
64
61
105
67
63
83
38
26
35
41
17
16
26
36
31
18
6
18
35
13
10
23
10
17
25
19
20
6
21
22
7
16
10
13
16
14
25
8
-1
14
14
20
7
17
3
-6
7
-3
7
-15
-18
5
-21
10
16
-6
9
-5
-1
-31
-38
-7
-17
-1
-10
-15
7
-11
2
8
0
8
-26
-12
-53
-28
-13
-47
3
-36
-47
-9
-45
28
115
77
-5
-79
-52
-71
-75
-26
-40
0
-29
-51
-17
-35
-12
-45
-59
-7
-40
-8
-3
-47
-9
-38
0
8
-24
14
12
34
39
17
55
59
44
73
56
88
95
62
68
35
33
31
42
24
17
43
20
50
59
10
25
26
28
2
-5
24
-24
2
8
-10
5
-37
12
-19
-40
-5
-38
-4
-24
-33
14
-15
12
-9
-23
22
-9
5
-6
-10
20
-25
12
18
-27
28
-6
-8
5
-14
8
-35
16
20
-20
24
-10
18
-8
-32
8
-44
-12
-38
-50
-4
-52
-4
-40
-65
9
41
78
9
-62
-73
-107
-45
-41
-72
-21
-83
-19
-14
-71
-15
-64
-20
-14
-64
-13
-49
-28
-61
-74
-10
-58
-18
-6
-36
11
-21
10
24
0
63
22
20
71
38
54
1
31
49
0
44
-67
-238
89
142
-115
111
-128
63
126
-100
126
-90
89
135
-77
128
-77
64
112
-71
120
-68
75
109
-79
96
-66
67
99
-60
92
-56
48
84
-60
62
-71
38
71
-55
55
-69
28
59
-75
56
-55
42
71
-67
44
-52
28
57
-46
43
-46
20
40
-62
23
-66
-5
19
-73
18
-69
-72
-4
-57
48
58
111
-29
-100
-54
-119
-34
-12
-82
-23
-69
-30
-7
-77
-28
-63
-33
-20
-80
-28
-51
-63
-35
-52
-24
-67
-69
-11
-16
1
-3
25
27
9
45
9
37
51
49
57
9
29
47
37
18
-2
11
31
24
21
7
-2
11
0
13
42
44
37
35
33
35
25
38
27
21
50
29
45
50
24
55
39
36
43
17
54
36
34
53
34
54
26
22
68
37
32
16
28
33
13
20
-5
29
36
-2
27
-3
13
21
-6
26
-8
-13
12
3
26
-17
-23
-9
-44
-7
-27
6
8
-44
-10
-60
-15
79
98
31
-82
-94
-49
-85
-42
-70
-42
-23
-49
-7
-44
-21
-48
-71
-8
-47
-54
-29
-63
-15
-51
-19
-4
-40
-9
-30
-8
12
11
40
49
42
64
67
49
68
54
47
52
31
19
34
41
15
14
21
23
28
14
22
21
32
17
13
21
9
6
12
0
19
0
22
30
3
15
-7
10
14
-32
2
3
-12
7
-22
1
2
11
-7
-26
-12
-26
1
11
-23
-10
-32
-3
10
-17
2
-18
-20
14
-19
-3
-15
-2
1
-24
-1
-6
1
-21
-34
-15
-55
-28
-18
-48
-25
-46
-32
-28
-52
-20
-27
13
84
96
-1
-97
-98
-46
-73
-28
-62
-40
-27
-57
-21
-18
-26
-44
-58
-21
-43
-53
-27
-43
-29
-35
-20
-38
-50
-14
-13
-10
21
37
36
95
82
79
111
76
100
75
60
92
56
51
37
48
51
40
63
69
47
37
36
61
47
36
51
41
36
47
36
21
28
41
51
45
22
18
36
25
16
23
37
39
23
28
31
32
19
18
11
1
23
11
6
-2
-11
19
-1
-5
5
-16
15
2
-2
8
-10
6
-19
-22
0
-43
-13
-38
-45
-13
-37
-13
-38
-45
-14
-37
5
-15
-32
-23
-49
-32
-135
-146
-100
-156
-96
-163
-171
-105
-144
-39
3
20
-33
-102
-88
-146
-152
-79
-105
-69
-100
-104
-62
-91
-54
-86
-95
-48
-75
-60
-59
-73
-47
-65
-41
-57
-62
-34
-38
-3
6
-4
16
39
35
64
35
34
61
50
76
47
43
28
15
16
-5
11
6
18
26
3
30
35
21
36
4
20
33
26
7
0
21
3
1
-5
-11
12
-11
-21
-9
0
16
-7
8
18
-1
15
16
16
11
7
11
5
18
22
6
15
4
3
20
3
7
-6
12
18
-14
42
-5
-19
-5
-8
30
-5
-11
20
5
28
-1
-3
36
19
31
14
20
2
-6
-51
-161
-175
-333
-368
-322
-485
-389
-478
-390
-308
-468
-475
-626
-655
-558
-645
-534
-514
-381
-317
-375
-262
-300
-305
-208
-283
-202
-234
-239
-155
-203
-139
-135
-177
-126
-152
-99
-87
-114
-65
-63
-22
4
-32
13
15
-16
40
-14
26
35
-9
8
-16
27
31
-11
8
-14
10
14
-3
15
-25
-5
-22
-27
0
-21
13
17
-8
24
-6
27
-9
-25
13
-15
25
-8
-24
19
-11
28
7
-2
35
-1
41
50
13
33
0
19
5
1
37
5
42
16
3
24
-5
23
8
26
39
3
32
-13
-17
38
-10
37
0
-12
23
-4
46
0
-14
34
10
27
11
3
13
-25
10
-34
-1
14
-29
14
-33
11
91
84
88
6
-16
-69
-96
8
-30
-36
-10
-44
20
-18
4
9
-35
2
-6
23
28
-28
34
-11
35
60
18
113
65
58
140
42
276
342
-68
264
24
-69
239
-113
198
-29
-161
136
-174
118
-103
-212
81
-261
35
42
-252
49
-217
42
43
-183
99
-170
92
100
-129
114
-112
95
96
-108
104
-110
111
126
-65
124
-62
104
116
-50
126
-62
104
117
-77
105
-51
92
105
-54
111
-52
81
103
-32
80
-57
74
88
-63
83
-47
57
71
-52
57
-81
37
63
-80
20
-85
4
28
-80
17
-114
-10
20
-82
29
-78
3
33
-64
26
18
132
32
-61
-27
-119
-41
-10
-76
12
-69
-10
11
-62
8
-66
-16
1
-63
11
-49
0
11
-54
18
-42
13
25
-35
47
-11
50
58
21
95
29
84
46
26
68
-54
-64
-24
-68
0
-41
-5
7
-48
4
-35
-10
3
-21
23
-22
11
19
-26
15
-19
15
22
-15
17
-12
19
-17
-43
19
-13
17
22
-11
16
-20
1
7
-12
6
-17
21
23
-4
21
-18
13
19
-7
29
6
14
0
-5
8
0
20
-9
-28
5
-19
6
16
-8
3
-18
2
6
-11
-5
-23
-5
1
-2
11
-22
-7
-5
-27
-10
-30
-31
-24
-44
-24
-27
10
47
81
35
-70
-88
-51
-67
-44
-43
-26
-20
-37
-19
-48
-51
-29
-43
-28
-55
-62
-30
-32
-23
-56
-34
-17
-28
-11
-15
10
6
44
55
29
58
45
99
65
42
74
34
79
82
28
43
22
39
43
8
40
43
26
40
18
22
27
35
12
11
35
3
17
23
16
23
10
14
17
14
17
16
20
0
4
11
-1
18
31
19
26
9
5
10
1
25
21
29
18
0
3
8
5
-5
6
10
0
13
26
16
14
4
2
0
-9
-6
-3
0
12
-4
-19
3
-12
0
9
0
7
-3
-4
9
-18
-31
-39
-26
-21
-41
-13
-37
-38
37
77
43
-22
-55
-66
-78
-28
-39
-40
-15
-24
-1
-34
-13
-12
-56
-8
-40
-20
-4
-42
-15
-5
-15
-8
-34
-9
-8
4
26
27
46
69
64
94
103
86
104
93
101
102
74
76
58
54
45
53
43
38
61
29
49
71
57
59
53
52
38
31
50
29
40
21
37
47
22
41
5
0
26
-8
32
7
2
33
-3
28
-11
-15
34
-5
21
-6
-10
26
-21
29
3
-9
27
-28
20
-8
-23
12
-35
0
-42
-60
-15
-76
-22
-70
-27
0
-79
-15
-75
-85
-21
-82
-21
-55
-56
-11
-84
-12
-82
-96
-28
-97
-33
-82
-90
-24
-51
54
70
-8
-90
-158
-58
-106
-114
-33
-101
-38
-88
-104
-33
-80
-31
-83
-92
-26
-91
-22
-61
-71
-17
-85
-16
-7
-44
1
-28
23
26
-7
41
40
54
24
16
83
47
33
38
16
46
11
33
34
-2
16
-9
35
10
-8
21
-22
13
21
-12
14
-21
18
-20
-33
26
-32
13
19
-25
26
-21
-11
-36
0
20
-39
17
25
-1
18
-36
11
16
-16
6
-26
14
15
-20
19
-39
0
15
-36
3
-24
7
13
-22
-2
-33
9
-20
-37
1
-37
4
8
-28
16
-24
13
17
-28
0
-47
0
3
-36
-5
-35
-2
-40
-55
60
88
82
9
-47
-40
-89
-10
10
-44
-6
-38
4
12
-38
10
-34
5
23
-16
25
-18
-24
7
-13
32
-16
26
52
28
82
61
49
100
90
178
-58
-228
352
16
-67
310
-58
286
1
-83
276
-92
245
-16
-103
227
-94
219
-2
-93
206
-94
211
-19
-108
188
-74
196
1
-74
198
-86
192
0
-78
176
-90
155
-3
-64
166
-87
153
10
-68
136
-71
128
-13
-78
125
-88
111
114
-61
101
-54
117
-8
-68
104
-70
89
-11
-70
78
-76
65
74
-60
77
-45
95
3
-54
58
-74
52
-34
-88
17
-111
16
25
-102
31
-33
138
150
-31
-15
-166
-40
-7
-103
-10
-95
-7
9
-81
3
-91
-20
-14
-99
0
-89
-8
9
-72
27
-65
5
24
-58
36
-33
52
81
24
133
87
120
140
95
145
88
83
134
47
98
38
37
93
3
56
5
2
65
-2
56
21
19
0
-30
30
-28
1
18
-20
40
-13
-32
-10
-44
25
-23
-39
29
-33
12
-22
-31
29
-23
28
34
-13
30
-30
27
42
-9
30
-2
40
42
-13
35
-21
11
12
-36
21
-41
3
11
-24
30
-43
23
41
-17
1
-60
-10
2
-48
0
-64
-25
-15
-55
44
58
62
-41
-110
-82
-104
-40
-12
-44
-15
-57
-15
-11
-65
0
-43
-4
5
-43
15
-4
8
-10
-16
24
-60
-10
-1
-31
27
9
24
30
36
50
58
73
71
88
96
93
100
89
81
62
48
58
52
49
52
31
48
20
9
39
-5
19
28
-15
8
-27
-34
-3
-17
4
-32
-3
5
-39
-6
-45
-3
2
-51
3
-14
-15
10
-12
11
-13
19
28
5
12
-3
18
29
-1
6
-9
7
13
-5
0
-19
2
9
-2
7
-68
-38
-26
-67
-43
-83
-54
-41
-85
-54
-101
-69
-47
-68
29
73
22
-102
-151
-80
-134
-87
-55
-110
-60
-102
-108
-68
-108
-58
-83
-90
-67
-93
-59
-87
-93
-61
-82
-45
-69
-51
-26
-21
-11
-11
-3
13
36
23
46
58
36
66
36
29
46
31
43
28
21
25
5
-3
12
24
18
5
3
6
5
3
-10
-11
25
10
3
4
-4
0
-1
2
-4
-5
5
8
-5
0
-11
0
9
2
10
9
16
9
3
-2
-10
4
7
-2
4
-11
14
22
-14
-12
-14
4
9
-5
20
21
11
19
10
0
-15
0
6
3
-16
-32
-2
7
-17
25
76
92
74
2
-68
-87
-14
-12
-27
-3
-21
2
13
0
14
-7
-14
9
3
12
-1
14
24
-1
27
-2
-7
15
13
61
65
42
97
76
102
122
99
142
145
113
127
90
102
75
91
98
85
76
59
87
75
72
59
48
75
51
70
77
44
59
48
66
47
44
75
29
59
63
31
66
39
75
36
21
61
-1
39
42
17
51
-7
45
46
-1
37
-7
36
-4
-15
43
-44
22
25
-19
34
-56
19
20
-36
26
-44
1
-62
-80
-12
-71
-26
-64
-79
-22
-81
-18
-6
56
118
24
-31
-123
-137
-35
-64
-16
-49
-64
-17
-57
1
10
-37
-3
-44
-17
-49
-59
-5
-73
-3
5
-59
-8
-37
9
12
-23
36
24
67
71
48
101
72
108
58
38
93
28
47
22
0
33
3
33
34
-5
28
-2
44
54
15
37
-17
39
57
3
21
-4
34
39
-13
16
-14
12
23
-8
26
-8
13
26
-3
37
-20
9
26
-18
28
37
27
35
0
45
-3
-10
16
-17
30
13
39
7
-18
42
-9
23
40
1
36
18
37
47
9
30
-6
19
28
-15
8
-33
8
28
-40
0
50
161
179
10
-38
-99
-52
-1
-25
24
-12
-22
22
-21
2
-22
-7
1
-31
-14
-42
-17
-11
-66
1
-41
-58
-14
-35
12
18
-7
39
19
47
19
15
60
24
50
-1
-2
51
-29
6
-41
-60
-23
-57
-6
-33
-50
-24
-36
10
-32
-53
-22
-59
-30
-29
-50
-36
-57
12
-42
-60
-15
-56
-22
-51
-60
-15
-62
-17
-51
-58
-9
-62
-12
-47
-55
-13
-48
-13
-77
-89
-27
-63
-20
-60
-61
-16
-79
-26
-66
-68
-28
-94
-26
-77
-89
-41
-86
-23
-54
-63
-25
-81
-29
-82
-90
-42
-124
-62
-114
-129
-70
-110
-65
-106
-24
64
0
-54
-165
-176
-123
-154
-62
-115
-128
-83
-125
-53
-120
-131
-68
-106
-59
-103
-106
-61
-95
-51
-104
-109
-49
-100
-24
-19
-47
18
-9
41
11
46
70
38
97
35
28
81
9
49
-12
-26
36
-18
29
-5
-12
39
3
39
-7
31
50
-17
37
-3
-7
40
-14
34
-28
-35
27
-23
26
-20
-29
23
-19
31
-12
-18
34
-23
18
-14
-17
51
-2
21
-18
12
24
-33
32
-11
-14
30
-31
16
-39
-43
11
-56
-3
-51
-11
20
-49
1
-39
-53
-4
-43
-12
-86
-93
-36
-87
-37
-87
-89
-47
-101
-34
-44
54
103
-27
-81
-154
-119
-92
-119
-52
-90
-95
-56
-106
-32
-97
-104
-52
-103
-49
-77
-83
-55
-85
-44
-97
-59
-27
-48
-2
-44
12
51
10
65
45
73
94
65
101
44
85
105
38
79
33
30
64
20
61
8
44
63
27
81
5
0
70
24
62
19
16
66
36
65
23
47
65
15
51
10
3
41
6
41
9
44
72
10
45
5
34
49
0
59
4
-3
37
-9
38
-5
-12
35
-26
-7
-36
-39
-7
-43
-4
-45
-54
-28
-40
-28
-79
-42
-15
-60
-22
-52
-55
-17
-37
-15
-80
-83
-37
-75
-42
-72
-48
-46
-98
-23
-7
113
144
-20
-68
-124
-92
-57
-67
-40
-72
-36
-13
-59
-30
-49
-57
-34
-54
-20
-51
-59
-25
-59
-21
-39
-48
-15
-27
21
4
1
32
26
77
58
96
121
88
108
75
94
106
51
66
30
24
51
24
53
29
46
62
39
49
36
47
50
18
50
25
14
41
6
39
22
12
34
7
28
9
0
2
-12
24
25
-1
10
6
39
22
11
20
-2
26
30
15
29
12
26
4
22
32
0
41
51
8
18
5
28
30
10
30
-5
39
42
0
11
-6
-7
6
-2
24
6
4
-3
-15
-5
-38
-5
-33
-62
-30
-35
-30
-48
-54
51
93
60
-34
-98
-100
-106
-73
-61
-73
-37
-47
-50
-34
-61
-44
-43
-48
-41
-62
-52
-52
-29
-23
-51
-33
-47
-21
-17
-36
2
-10
4
6
26
59
61
76
58
42
71
22
15
42
-5
19
-10
-11
25
-25
-14
-11
5
14
-23
-2
0
-18
14
-20
-6
-14
-15
-4
-21
3
-9
-12
0
-22
-18
-29
7
12
-38
-7
-15
6
16
-30
-2
-14
32767
32767
32767
32767
32767
32767
32767
32767
32767
32767
32767
32767
32767
32767
32767
32767
32767
32767
32767
32767
32767
32767
32767
32767
32767
32767
32767
32767
32767
32767
32767
32767
32767
32767
32767
32767
32767
32767
32767
32767
32767
32767
32767
32767
32767
32767
32767
32767
32767
32767
32767
32767
32767
32767
32767
32767
32767
32767
32767
32767
32767
32767
32767
32767
32767
32767
32767
32767
32767
32767
32767
32767
32767
32767
32767
32767
32767
32767
32767
32767
32767
32767
32767
32767
32767
32767
32767
32767
32767
32767
32767
32767
32767
32767
32767
32767
32767
32767
32767
32767
32767
32767
32767
32767
32767
32767
32767
32767
32767
32767
32767
32767
32767
32767
32767
32767
32767
32767
32767
32767
32767
32767
32767
32767
32767
32767
32767
32767
32767
32767
32767
32767
32767
32767
32767
32767
32767
32767
32767
32767
32767
32767
32767
32767
32767
32767
32767
32767
32767
32767
32767
32767
32767
32767
32767
32767
32767
32767
32767
32767
32767
32767
32767
32767
32767
32767
32767
32767
32767
32767
32767
32767
32767
32767
32767
32767
32767
32767
32767
32767
32767
32767
32767
32767
32767
32767
32767
32767
32767
32767
32767
32767
32767
32767
32767
32767
32767
32767
32767
32767
32767
32767
32767
32767
32767
32767
32767
32767
32767
32767
32767
32767
32767
32767
32767
32767
32767
32767
32767
32767
32767
32767
32767
32767
32767
32767
32767
32767
32767
32767
32767
32767
32767
32767
32767
32767
32767
32767
32767
32767
32767
32767
32767
32767
32767
32767
32767
32767
32767
32767
32767
32767
32767
32767
32767
32767
32767
32767
32767
32767
32767
32767
32767
32767
32767
32767
32767
32767
32767
32767
32767
32767
32767
32767
32767
32767
32767
32767
32767
32767
32767
32767
32767
32767
32767
32767
32767
32767
32767
32767
32767
32767
32767
32767
32767
32767
32767
32767
32767
32767
32767
32767
32767
32767
32767
32767
32767
32767
32767
32767
32767
32767
32767
32767
32767
32767
32767
32767
32767
32767
32767
32767
32767
32767
32767
32767
32767
32767
32767
32767
32767
32767
32767
32767
32767
32767
32767
32767
32767
32767
32767
32767
32767
32767
32767
32767
32767
-909
-2671
-2160
-1572
-2025
-2415
-2043
-1070
-631
-572
-497
-493
-461
-577
-984
-1178
-932
-394
397
905
1576
2000
1611
379
-928
-1668
-2131
-1819
-727
-240
-234
-243
-282
-288
-227
-208
-824
-1604
-1973
-1996
-2087
-1708
-424
61
8
-4
18
12
59
34
168
236
204
256
267
387
688
823
1094
1304
1532
1892
2073
2087
2166
2214
964
194
187
316
416
523
306
280
1278
2033
2312
1713
473
285
401
227
135
184
197
134
-333
-1290
-1897
-1341
-221
-2
-23
22
8
107
176
110
-172
-617
-956
-1228
-1617
-1730
-1665
-1703
-1695
-1759
-594
312
366
307
323
342
347
377
397
276
316
226
154
163
83
128
70
17
95
33
-31
83
171
139
197
211
161
175
132
135
68
12
-2
-54
-62
-76
-97
-75
-120
-131
-182
-237
-239
-219
-200
-235
-263
-241
-306
-323
-356
-380
-361
-385
-353
-342
-360
-324
-329
-247
-208
-333
-407
-479
-489
-461
-457
-441
-427
-380
-354
-309
-237
-227
-201
-195
-250
-251
-285
-323
-363
-369
-296
-317
-343
-347
-328
-306
-317
-287
-249
-226
-191
-152
-120
-101
-92
-69
-93
-112
-132
-162
-164
-169
-170
-162
-131
-86
-81
-76
-61
-69
-68
-98
-104
-109
-110
-90
-84
-97
-91
-84
-40
-20
-12
9
4
13
-14
-24
2
-8
-15
-5
-7
18
51
90
114
127
160
178
201
209
202
208
187
180
183
152
153
124
118
140
125
143
164
173
177
188
207
188
181
176
180
181
142
147
149
126
124
139
202
247
171
71
-8
-33
-19
-4
-1
-14
0
17
27
52
58
71
80
72
82
91
104
111
83
95
87
96
100
87
104
91
89
107
98
119
107
102
112
85
80
60
55
61
33
42
25
21
33
17
27
-5
-10
19
10
16
11
38
48
33
56
60
67
77
76
90
67
62
69
37
50
40
33
57
55
56
43
40
52
81
106
66
56
76
55
51
44
34
41
10
19
5
-4
10
22
60
77
105
134
141
146
132
113
96
71
65
7
-38
-45
-46
-29
-39
-41
-33
-51
-21
17
88
101
-44
-132
-146
-115
-96
-101
-84
-102
-87
-74
-102
-86
-84
-103
-100
-127
-104
-82
-47
-33
-37
-12
-31
-49
-35
-52
-38
-11
0
28
39
51
52
43
52
24
21
37
15
16
-1
6
20
31
33
23
31
33
41
53
52
86
109
123
145
127
141
146
122
135
139
163
181
191
193
181
193
194
196
181
137
126
110
95
77
54
50
54
41
53
54
48
54
34
29
11
9
-2
-7
20
13
11
16
13
21
13
30
36
53
83
90
113
120
103
109
85
77
80
24
16
9
3
47
122
151
36
-79
-113
-114
-98
-74
-68
-87
-92
-60
-82
-86
-75
-95
-85
-82
-59
-45
-11
36
37
21
25
-18
-22
-34
-36
-28
-31
-16
-15
-5
-1
-16
-3
-9
-2
3
-5
12
17
-12
-13
55
72
55
53
64
32
42
30
29
15
-9
9
-10
-24
-31
-40
-29
-14
0
-5
-8
-7
-18
-15
-31
-45
-25
-29
-21
-20
-42
-36
-58
-67
-78
-98
-97
-98
-84
-80
-83
-63
-68
-50
-42
-64
-61
-82
-84
-66
-80
-74
-70
-60
-54
-73
-78
-77
-96
-113
-127
-118
-117
-130
-121
-109
-83
-60
0
69
73
-14
-102
-121
-102
-114
-120
-144
-155
-158
-169
-171
-176
-182
-143
-118
-79
-34
29
83
99
111
97
77
48
19
4
-13
-7
-4
-9
6
23
15
0
-23
-28
-50
-67
-80
-82
-69
-80
-66
-44
-44
-34
-43
-57
-56
-64
-42
-40
-54
-37
-46
-34
-28
-44
-39
-31
-7
15
59
100
113
145
154
152
158
135
123
105
94
89
75
84
86
68
55
53
71
43
38
53
5
2
-27
-39
-34
-60
-41
-27
-3
19
16
32
36
40
32
21
29
15
0
-2
-20
-12
-8
-1
15
3
16
6
0
32
89
162
93
0
-38
-54
-26
-5
1
2
1
17
19
16
22
9
21
35
42
54
71
89
83
79
85
70
66
63
59
78
72
82
84
66
80
63
72
55
33
42
16
11
1
-8
4
-24
-28
-20
-35
-11
-17
-4
-2
-8
16
7
27
32
27
31
10
33
40
32
36
18
31
37
23
36
27
22
15
14
33
28
40
46
16
27
9
-5
-18
-28
-18
-22
-21
-43
-48
-28
-30
-31
-46
-50
-26
-33
-25
-22
-17
-27
-38
-15
-26
-29
-11
-26
-23
-22
-13
-11
-33
-23
-36
-42
-36
-56
-41
-56
-68
-41
0
80
91
-20
-80
-101
-72
-51
-39
-27
-34
-35
-43
-45
-28
-42
-31
-19
6
35
15
35
59
49
45
43
66
48
41
71
60
58
68
79
64
46
61
44
22
30
8
5
3
10
16
-4
14
0
-6
1
-29
-10
-5
0
14
-8
7
13
4
0
-8
3
-5
-11
1
2
0
-6
-11
0
-20
0
1
-20
-9
-18
-19
-38
-51
-47
-71
-82
-87
-92
-67
-60
-59
-90
-99
-95
-122
-104
-101
-112
-83
-87
-56
-54
-66
-18
-16
-21
-10
-1
3
-2
-3
-1
6
25
15
35
36
21
37
25
44
48
36
40
49
68
42
36
77
138
166
73
-19
-50
-56
-34
-27
-29
-14
-13
-12
-27
-33
-15
-32
-34
-27
-20
-12
-18
26
28
7
18
-21
-1
2
-22
-19
-25
19
30
39
60
59
100
85
80
107
102
119
89
72
86
78
91
82
76
84
73
88
98
96
102
99
102
76
52
51
44
53
45
38
27
5
20
23
1
-10
-14
1
-11
-16
2
-29
-16
-8
-21
-18
-51
-31
-28
-53
-49
-69
-49
-66
-82
-73
-82
-77
-82
-93
-94
-92
-80
-68
-43
-33
-62
-55
-70
-99
-107
-129
-126
-145
-153
-125
-131
-129
-153
-163
-144
-163
-153
-149
-156
-146
-157
-138
-122
-71
-12
-66
-155
-222
-236
-213
-173
-133
-127
-135
-110
-117
-92
-91
-112
-97
-104
-95
-90
-101
-84
-80
-66
-64
-71
-28
-18
8
13
3
8
1
12
15
12
25
12
27
32
3
14
8
7
3
-7
3
0
8
11
-5
6
-2
-5
15
19
33
35
53
40
30
36
21
30
33
26
47
23
16
36
35
42
30
19
3
-1
-3
-18
-10
-20
-32
-14
-26
-17
-13
-42
-38
-41
-37
-35
-52
-55
-46
-44
-43
-50
-39
-41
-30
-21
-22
10
-2
-8
4
1
20
35
39
26
16
25
0
-13
-18
-23
2
8
-2
-9
-12
1
-13
15
72
136
151
5
-59
-61
-41
-13
-12
-8
-16
-23
-7
-17
-29
-26
-18
-10
-14
-1
12
38
63
51
48
63
57
63
55
63
70
65
83
85
76
72
61
57
44
50
54
36
42
37
49
61
57
58
45
34
11
-8
1
3
-11
-14
3
44
50
44
68
64
59
50
59
64
44
48
38
40
25
16
19
12
8
9
4
25
13
-9
-17
-36
-40
-38
-52
-57
-61
-31
-28
-34
-12
-7
-2
-1
12
18
11
29
18
11
17
0
4
0
21
26
-5
15
21
0
10
5
11
-10
-23
-11
-12
0
1
-2
4
-10
-20
-25
57
126
72
6
-51
-65
-17
0
19
12
26
45
37
60
67
59
62
57
75
77
79
84
68
83
85
56
46
24
21
30
27
39
20
31
39
37
40
0
8
12
-14
-32
-58
-66
-74
-78
-51
-39
-8
0
13
36
49
57
43
37
72
76
76
68
61
33
10
24
8
-8
-26
-62
-50
-49
-67
-47
-77
-82
-63
-87
-97
-104
-106
-105
-106
-102
-143
-165
-171
-177
-176
-206
-195
-194
-217
-194
-211
-206
-203
-206
-175
-180
-166
-145
-124
-113
-123
-110
-104
-95
-74
-89
-92
-105
-121
-95
-107
-109
-99
-108
-86
-98
-73
-19
64
97
19
-66
-141
-155
-142
-143
-126
-124
-134
-122
-135
-110
-82
-72
-60
-59
-48
-43
-30
-7
-17
5
20
25
37
21
14
9
17
21
15
24
-8
-17
-24
-38
-33
-17
20
44
59
99
109
97
79
59
86
93
88
107
94
107
94
86
112
104
98
78
73
95
85
92
79
69
61
52
72
74
58
64
44
39
34
26
38
33
41
29
15
23
7
-1
-8
-9
-3
-24
-6
3
24
45
41
52
43
70
105
85
81
71
86
89
74
83
48
34
38
1
21
32
38
47
23
31
34
21
47
93
172
133
23
-30
-55
-43
-27
-17
-24
-40
-44
-46
-22
-16
-30
-19
-14
20
43
38
45
47
41
56
37
30
18
30
45
34
62
79
77
85
77
91
97
76
70
59
58
40
25
30
7
16
18
3
16
9
16
11
23
44
40
60
66
63
81
69
76
69
67
82
73
106
90
104
112
88
89
54
35
46
38
46
49
34
43
33
46
26
41
62
45
72
80
58
54
46
51
15
-8
2
-2
0
-21
-30
-26
-56
-38
-32
-39
-33
-23
0
1
-10
13
10
22
-2
-12
-2
-22
-18
-33
-36
13
1
6
3
44
122
130
25
-81
-116
-93
-82
-58
-56
-72
-57
-62
-48
-31
-10
-5
-15
15
18
8
24
-6
-9
-28
-41
-33
-35
-7
-4
-13
14
13
29
39
36
49
39
54
56
38
40
10
3
5
11
19
-5
-16
-23
-16
-11
-54
-58
-47
-72
-90
-119
-102
-85
-68
-46
-44
-42
-49
-51
-37
-33
-15
-32
-43
-25
-56
-66
-59
-65
-67
-79
-84
-91
-96
-71
-98
-103
-89
-121
-119
-138
-148
-165
-177
-169
-181
-171
-163
-165
-153
-159
-139
-161
-172
-157
-156
-156
-156
-147
-134
-151
-154
-136
-161
-152
-163
-152
-137
-135
-131
-138
-143
-135
-100
-23
-5
-83
-159
-195
-183
-166
-134
-145
-150
-122
-136
-128
-124
-127
-132
-126
-110
-104
-94
-72
-76
-70
-79
-86
-63
-72
-50
-34
-21
9
28
51
56
50
58
42
38
49
41
54
41
35
58
54
61
51
59
63
38
30
24
39
43
51
71
73
65
69
63
62
61
73
53
50
78
76
75
63
60
66
60
70
72
59
54
44
49
51
36
35
28
26
20
15
17
11
9
3
-2
16
-1
-8
9
-15
-19
-27
-29
-11
-12
2
-5
-7
5
-3
0
3
11
14
0
0
-23
-32
-22
-35
-22
-38
-25
-16
-45
-36
-1
85
113
7
-82
-106
-61
-36
-37
-22
-21
-35
-44
-59
-47
-58
-64
-51
-61
-43
-37
-28
-24
-19
-11
-24
-19
-27
-32
-16
-13
0
20
34
69
73
48
53
52
63
43
28
30
19
15
16
20
24
3
16
20
6
21
22
36
38
23
46
45
66
72
68
58
54
65
67
55
66
64
66
54
63
65
42
48
43
41
45
43
50
29
27
36
25
36
16
3
20
24
13
8
5
-10
-15
1
3
-16
-7
-14
-15
-24
-25
-13
-30
-21
-22
-9
-1
-27
-18
-12
-20
-28
-46
-36
-57
-62
-43
-65
-47
-43
-56
-5
67
111
42
-49
-86
-99
-87
-77
-66
-54
-58
-52
-47
-34
-27
-34
-14
-10
-20
3
1
13
15
8
13
-12
-13
-3
-12
12
20
26
30
40
52
36
45
51
42
28
3
-4
-16
-18
-12
-44
-24
-18
-33
-26
-28
-19
-15
-8
-2
-12
24
37
30
64
70
77
79
71
92
95
99
82
62
77
64
74
78
61
79
58
53
59
62
63
34
45
30
24
45
17
15
24
14
19
-5
-6
4
-6
7
-12
-14
0
13
18
16
39
44
30
35
25
43
30
20
39
38
61
35
15
37
18
14
23
20
36
22
27
22
44
119
173
177
37
-28
-18
-8
20
33
31
34
24
40
24
0
12
7
19
9
0
1
-10
1
-6
-9
11
-6
0
3
-1
25
24
35
47
63
53
38
48
25
8
13
-11
0
-12
-20
-12
-18
-15
-28
-18
-10
-27
-7
-22
-30
-18
-37
-22
-18
-36
-24
-31
-21
-28
-33
-21
-38
-26
-37
-24
-9
-34
-36
-27
-37
-21
-37
-29
-25
-30
-38
-55
-39
-38
-48
-24
-40
-17
-8
-24
-20
-31
-33
-48
-54
-34
-53
-42
-39
-30
-22
-32
-14
-12
-35
-17
-18
5
-12
-25
-14
-33
-37
-43
-35
-32
-46
-31
-44
-51
-42
-22
60
96
41
-46
-106
-108
-95
-68
-50
-56
-16
-14
-36
-5
-22
-24
-19
-30
-7
-14
-8
-4
18
32
18
27
14
34
48
27
58
61
49
82
63
72
63
49
33
24
47
39
36
45
18
41
32
28
49
33
32
29
27
41
12
32
23
16
19
10
25
26
12
26
6
5
6
5
16
0
7
-1
12
32
4
0
10
-3
14
2
10
-4
-9
-1
-21
-1
0
-9
0
-23
-6
-18
-23
-8
-29
-24
-23
-38
-34
-39
-13
-28
-37
-15
-27
-30
-28
-34
-8
-21
-18
-24
-25
-14
-40
-41
-31
-29
-41
-48
-44
-57
-71
-68
-65
-6
86
98
-10
-92
-103
-78
-58
-40
-50
-56
-48
-37
-31
-32
-18
-17
-33
-22
-27
-15
0
12
39
46
41
54
62
69
66
72
61
53
76
62
70
77
71
74
66
72
59
41
44
31
22
24
25
17
6
31
32
6
30
20
17
15
31
52
34
29
27
25
40
10
8
26
10
22
7
2
11
0
4
5
2
0
-2
8
-6
-10
0
-15
0
-6
-11
-10
-13
-7
-9
-5
-20
-30
-13
-10
-22
-17
-21
-20
-36
-24
-17
-37
-29
-25
-15
-12
-17
5
-7
7
16
9
17
5
12
1
-17
-16
-27
-30
-41
-48
-34
-50
-51
-28
-6
86
113
30
-65
-110
-96
-85
-65
-52
-58
-49
-59
-46
-37
-54
-48
-42
-38
-37
-54
-34
-30
-27
-25
-35
-25
-37
-30
-25
-46
-21
-12
-5
10
9
27
32
45
47
17
26
10
-2
-7
-10
-1
-11
-16
-4
-16
-8
-11
-2
7
-4
6
9
-3
2
-1
3
-1
-2
17
15
32
39
71
86
75
95
82
75
79
68
75
67
55
67
68
61
54
51
61
27
33
24
20
13
6
20
11
9
17
2
7
-1
4
5
-25
-14
-19
-13
-5
-7
3
8
0
11
5
4
19
-10
-5
-15
-16
-7
-14
-6
-1
3
-11
-16
13
39
109
119
-4
-74
-89
-60
-55
-61
-49
-58
-47
-37
-28
-18
-28
-17
-8
-10
-2
0
8
15
29
19
3
21
25
18
26
14
36
24
16
31
19
33
38
34
36
30
23
-5
-27
-19
-41
-46
-37
-51
-31
-31
-14
-9
-17
3
13
34
25
22
53
41
38
30
29
25
17
26
14
11
26
7
21
25
21
29
10
22
8
3
18
0
15
17
-6
7
-11
8
11
-9
11
-4
1
-9
-18
14
3
2
17
13
20
10
15
16
5
18
20
27
29
20
29
20
33
36
28
51
20
12
4
-3
8
-1
1
-7
-16
-8
4
81
148
101
-1
-71
-53
-39
-22
-15
-23
-1
-23
-34
-13
-20
-7
-17
-21
15
13
30
24
23
44
32
42
34
28
37
30
39
43
37
51
34
47
51
37
51
40
42
18
6
22
14
27
6
-1
8
-11
-2
-13
-23
-2
-1
16
24
17
39
32
40
34
28
34
31
40
33
46
50
19
24
28
31
22
11
22
25
6
12
-3
8
10
4
0
-8
2
-11
-16
8
3
14
12
20
23
0
4
-4
-8
23
-5
-8
3
-2
17
7
17
-5
-11
20
6
18
9
2
-2
-9
-3
-22
-30
-30
-35
-30
-44
-49
-45
-61
-54
-56
-30
42
73
18
-86
-125
-122
-125
-78
-75
-102
-98
-94
-76
-75
-82
-66
-77
-67
-73
-76
-68
-81
-49
-43
-52
-25
-39
-21
-19
-27
-11
-36
-20
-15
-17
-10
-7
12
-1
-5
13
-13
-17
-9
-26
-23
-28
-23
-30
-15
-2
-30
-37
-31
-18
-12
-42
-14
-11
-21
7
4
18
-5
-12
5
-20
0
-9
-14
0
-10
1
2
-6
2
-8
3
4
-12
-8
-15
-8
-17
-21
-7
-19
-4
0
-23
-15
-15
-8
-19
-31
-22
-15
-6
-24
-32
-19
-31
-12
-6
-11
-3
-9
10
17
13
23
24
25
2
1
0
-15
-17
-20
-23
-19
-46
-19
18
95
125
14
-64
-89
-81
-54
-51
-42
-34
-44
-39
-40
-9
-5
-21
-7
-19
-7
10
7
19
20
29
39
51
62
51
61
68
55
83
74
90
91
74
100
96
104
88
67
61
39
55
62
38
39
32
39
41
27
41
26
41
45
26
49
51
53
44
50
56
40
43
44
41
36
16
32
39
7
20
10
4
12
-3
1
-1
8
-10
-17
7
0
6
-1
-9
11
-1
6
10
-3
11
0
-2
3
-2
5
0
9
16
5
13
15
20
10
1
13
8
23
26
19
38
30
16
8
4
18
4
-9
-2
-10
-2
0
9
70
134
139
-11
-69
-79
-65
-26
-14
-16
-12
1
27
-1
-9
1
0
5
-9
-5
-3
-6
12
8
20
26
19
20
15
30
41
36
53
56
52
59
50
54
47
45
44
39
37
18
16
22
2
29
10
-2
11
2
15
6
4
31
30
44
28
23
39
14
30
33
8
0
-7
2
-3
-4
0
-14
-6
-2
-11
-21
-34
-26
-33
-35
-37
-48
-45
-46
-45
-53
-59
-49
-54
-56
-40
-49
-58
-80
-53
-38
-71
-72
-52
-55
-63
-67
-56
-61
-66
-65
-58
-43
-53
-57
-42
-41
-34
-30
-57
-58
-54
-51
-60
-64
-51
-60
-46
-43
-8
83
103
24
-51
-84
-80
-67
-27
-18
-33
-15
-21
-13
-5
0
7
-6
2
5
-2
20
6
20
26
16
30
16
24
27
17
29
17
35
45
64
73
65
81
76
73
80
43
38
45
22
33
19
10
22
29
35
18
31
36
20
34
36
40
50
44
40
37
46
33
28
21
2
13
15
8
13
10
35
24
22
38
14
21
7
-13
-20
-26
-13
-20
-24
1
-17
-7
-4
-40
-16
-12
-26
-40
-27
-19
-35
-7
-4
-25
4
-18
3
14
-13
-12
-20
-8
-2
-22
-26
-29
-16
-39
-44
-15
-48
-37
-33
5
89
106
38
-67
-111
-93
-94
-52
-38
-53
-50
-51
-40
